{"name":"Consultar lista de usuarios","id":"consultar-lista-de-usuarios;consultar-lista-de-usuarios","testSteps":[{"number":1,"description":"Dado como \"administrador\" quiero usar la pagina  reqres api","duration":45,"startTime":"2023-05-18T17:45:23.252448400-05:00[America/Bogota]","result":"SUCCESS","precondition":false,"level":0},{"number":2,"description":"Cuando realizo una petición get para consultar la lista de usuarios","duration":3549,"startTime":"2023-05-18T17:45:23.301317200-05:00[America/Bogota]","result":"SUCCESS","precondition":false,"level":0,"children":[{"number":3,"description":"administrador executes a GET on the resource api/users","duration":3173,"startTime":"2023-05-18T17:45:23.665880300-05:00[America/Bogota]","result":"SUCCESS","precondition":false,"level":1,"children":[{"number":4,"description":"GET https://reqres.in/api/users","duration":0,"startTime":"2023-05-18T17:45:26.839099400-05:00[America/Bogota]","result":"SUCCESS","restQuery":{"method":"GET","path":"https://reqres.in/api/users","content":"","contentType":"application/json","requestHeaders":"Accept\u003d*/*\r\n\t\t\t\tContent-Type\u003dapplication/json","requestCookies":"","responseHeaders":"Date: Thu, 18 May 2023 22:45:27 GMT\r\nContent-Type: application/json; charset\u003dutf-8\r\nTransfer-Encoding: chunked\r\nConnection: keep-alive\r\nX-Powered-By: Express\r\nAccess-Control-Allow-Origin: *\r\nEtag: W/\"3e4-2RLXvr5wTg9YQ6aH95CkYoFNuO8\"\r\nVia: 1.1 vegur\r\nCache-Control: max-age\u003d14400\r\nCF-Cache-Status: HIT\r\nAge: 6356\r\nReport-To: {\"endpoints\":[{\"url\":\"https:\\/\\/a.nel.cloudflare.com\\/report\\/v3?s\u003dpX%2Bw6gtcsfDyJLjhzeIiQIJ1LTRwI8yrcPFpNh6G5gnkaXuA05rOcD3BMUNWiZsGUvnnHvgyqoe5qCQbEaGwNvKiu1uoZo8YFALAtY0UgJ%2Fgu2nOD2ns4lBLNw%3D%3D\"}],\"group\":\"cf-nel\",\"max_age\":604800}\r\nNEL: {\"success_fraction\":0,\"report_to\":\"cf-nel\",\"max_age\":604800}\r\nVary: Accept-Encoding\r\nServer: cloudflare\r\nCF-RAY: 7c97a16dac3412ee-ATL\r\nContent-Encoding: gzip\r","responseCookies":"\r","responseBody":"{\n    \"page\": 1,\n    \"per_page\": 6,\n    \"total\": 12,\n    \"total_pages\": 2,\n    \"data\": [\n        {\n            \"id\": 1,\n            \"email\": \"george.bluth@reqres.in\",\n            \"first_name\": \"George\",\n            \"last_name\": \"Bluth\",\n            \"avatar\": \"https://reqres.in/img/faces/1-image.jpg\"\n        },\n        {\n            \"id\": 2,\n            \"email\": \"janet.weaver@reqres.in\",\n            \"first_name\": \"Janet\",\n            \"last_name\": \"Weaver\",\n            \"avatar\": \"https://reqres.in/img/faces/2-image.jpg\"\n        },\n        {\n            \"id\": 3,\n            \"email\": \"emma.wong@reqres.in\",\n            \"first_name\": \"Emma\",\n            \"last_name\": \"Wong\",\n            \"avatar\": \"https://reqres.in/img/faces/3-image.jpg\"\n        },\n        {\n            \"id\": 4,\n            \"email\": \"eve.holt@reqres.in\",\n            \"first_name\": \"Eve\",\n            \"last_name\": \"Holt\",\n            \"avatar\": \"https://reqres.in/img/faces/4-image.jpg\"\n        },\n        {\n            \"id\": 5,\n            \"email\": \"charles.morris@reqres.in\",\n            \"first_name\": \"Charles\",\n            \"last_name\": \"Morris\",\n            \"avatar\": \"https://reqres.in/img/faces/5-image.jpg\"\n        },\n        {\n            \"id\": 6,\n            \"email\": \"tracey.ramos@reqres.in\",\n            \"first_name\": \"Tracey\",\n            \"last_name\": \"Ramos\",\n            \"avatar\": \"https://reqres.in/img/faces/6-image.jpg\"\n        }\n    ],\n    \"support\": {\n        \"url\": \"https://reqres.in/#support-heading\",\n        \"text\": \"To keep ReqRes free, contributions towards server costs are appreciated!\"\n    }\n}","statusCode":200},"precondition":false,"level":2}]}]},{"number":5,"description":"Entonces recibo la lista de  los usuarios","duration":532,"startTime":"2023-05-18T17:45:26.852025900-05:00[America/Bogota]","result":"SUCCESS","precondition":false,"level":0,"children":[{"number":6,"description":"Then obtener lista user should be (true)","duration":418,"startTime":"2023-05-18T17:45:26.962185200-05:00[America/Bogota]","result":"SUCCESS","precondition":false,"level":1,"children":[{"number":7,"description":"administrador should see a value that is equal to: \u003c6\u003e","duration":3,"startTime":"2023-05-18T17:45:27.370774600-05:00[America/Bogota]","result":"SUCCESS","precondition":false,"level":2},{"number":8,"description":"administrador should see a value that is equal to: \u003c2\u003e","duration":0,"startTime":"2023-05-18T17:45:27.378357500-05:00[America/Bogota]","result":"SUCCESS","precondition":false,"level":2}]}]}],"userStory":{"id":"consultar-lista-de-usuarios","storyName":"Consultar lista de usuarios","displayName":"Consultar lista de usuarios","path":"consultarlistaUser.feature","type":"feature"},"featureTag":{"name":"Consultar lista de usuarios","type":"feature","displayName":"Consultar lista de usuarios"},"title":"Consultar lista de usuarios","description":"","backgroundTitle":"","backgroundDescription":"","tags":[{"name":"Consultar lista de usuarios","type":"feature","displayName":"Consultar lista de usuarios"}],"startTime":"2023-05-18T17:45:23.083396200-05:00[America/Bogota]","duration":4303,"projectKey":"","isManualTestingUpToDate":false,"manual":false,"testSource":"Cucumber","actors":[{"name":"administrador","can":["call an API at https://reqres.in/"]}],"result":"SUCCESS"}